{
    "basic": {
        "file": "PD.pdf",
        "score_type": 1,
        "title": "Edsger Dijkstra"
    },
    "executes": [
        1,
        2,
        3,
        4,
        5,
        6,
        7,
        8
    ],
    "testdata": [
        {
            "input": "PD.in.txt",
            "memory_limit": 262144,
            "output": "PD.out.txt",
            "output_limit": 64,
            "score": 100,
            "time_limit": 2000
        }
    ]
}
